{
  "load_extensions": {
    "nbextensions_configurator/config_menu/main": true,
    "contrib_nbextensions_help_item/main": true,
    "gist_it/main": true,
    "codefolding/main": true,
    "varInspector/main": true
  },
  "gist_it_personal_access_token": ""
}
